[gd_resource type="Animation" format=2]

[resource]
resource_name = "label_float"
length = 4.0
loop = true
tracks/0/type = "value"
tracks/0/path = NodePath("Label:rect_position")
tracks/0/interp = 1
tracks/0/loop_wrap = true
tracks/0/imported = false
tracks/0/enabled = true
tracks/0/keys = {
"times": PoolRealArray( 0, 1, 2, 3, 4 ),
"transitions": PoolRealArray( 1, 1, 1, 1, 1 ),
"update": 0,
"values": [ Vector2( -4, -16 ), Vector2( -4, -12 ), Vector2( -4, -16 ), Vector2( -4, -20 ), Vector2( -4, -16 ) ]
}
