[gd_scene load_steps=2 format=2]

[ext_resource path="res://Level Design/CameraZone.gd" type="Script" id=1]

[node name="CameraZone" type="Area2D"]
script = ExtResource( 1 )

[node name="Camera2D" type="Camera2D" parent="."]
editor_draw_limits = true
editor_draw_drag_margin = true
__meta__ = {
"_editor_description_": ""
}
